2016-09-18T15:25:01.868195Z mysqld_safe Starting mysqld daemon with databases from /var/lib/mysql
2016-09-18T15:25:02.027583Z 0 [Warning] TIMESTAMP with implicit DEFAULT value is deprecated. Please use --explicit_defaults_for_timestamp server option (see documentation for more details).
2016-09-18T15:25:02.028650Z 0 [Note] /usr/sbin/mysqld (mysqld 5.7.15) starting as process 233 ...
2016-09-18T15:25:02.031887Z 0 [Note] InnoDB: PUNCH HOLE support available
2016-09-18T15:25:02.031908Z 0 [Note] InnoDB: Mutexes and rw_locks use GCC atomic builtins
2016-09-18T15:25:02.031913Z 0 [Note] InnoDB: Uses event mutexes
2016-09-18T15:25:02.031918Z 0 [Note] InnoDB: GCC builtin __atomic_thread_fence() is used for memory barrier
2016-09-18T15:25:02.031923Z 0 [Note] InnoDB: Compressed tables use zlib 1.2.3
2016-09-18T15:25:02.031927Z 0 [Note] InnoDB: Using Linux native AIO
2016-09-18T15:25:02.032123Z 0 [Note] InnoDB: Number of pools: 1
2016-09-18T15:25:02.032209Z 0 [Note] InnoDB: Using CPU crc32 instructions
2016-09-18T15:25:02.033488Z 0 [Note] InnoDB: Initializing buffer pool, total size = 128M, instances = 1, chunk size = 128M
2016-09-18T15:25:02.040831Z 0 [Note] InnoDB: Completed initialization of buffer pool
2016-09-18T15:25:02.042677Z 0 [Note] InnoDB: If the mysqld execution user is authorized, page cleaner thread priority can be changed. See the man page of setpriority().
2016-09-18T15:25:02.054058Z 0 [Note] InnoDB: Highest supported file format is Barracuda.
2016-09-18T15:25:02.086104Z 0 [Note] InnoDB: Creating shared tablespace for temporary tables
2016-09-18T15:25:02.086173Z 0 [Note] InnoDB: Setting file './ibtmp1' size to 12 MB. Physically writing the file full; Please wait ...
2016-09-18T15:25:02.293992Z 0 [Note] InnoDB: File './ibtmp1' size is now 12 MB.
2016-09-18T15:25:02.294853Z 0 [Note] InnoDB: 96 redo rollback segment(s) found. 96 redo rollback segment(s) are active.
2016-09-18T15:25:02.294870Z 0 [Note] InnoDB: 32 non-redo rollback segment(s) are active.
2016-09-18T15:25:02.295450Z 0 [Note] InnoDB: 5.7.15 started; log sequence number 12134488
2016-09-18T15:25:02.296220Z 0 [Note] InnoDB: Loading buffer pool(s) from /var/lib/mysql/ib_buffer_pool
2016-09-18T15:25:02.299367Z 0 [Note] Plugin 'FEDERATED' is disabled.
2016-09-18T15:25:02.300395Z 0 [Note] InnoDB: Buffer pool(s) load completed at 160918 15:25:02
2016-09-18T15:25:02.303318Z 0 [Warning] Failed to set up SSL because of the following SSL library error: SSL context is not usable without certificate and private key
2016-09-18T15:25:02.303798Z 0 [Note] Server hostname (bind-address): '*'; port: 3306
2016-09-18T15:25:02.303826Z 0 [Note] IPv6 is available.
2016-09-18T15:25:02.303834Z 0 [Note]   - '::' resolves to '::';
2016-09-18T15:25:02.303850Z 0 [Note] Server socket created on IP: '::'.
2016-09-18T15:25:02.312480Z 0 [Warning] 'db' entry 'sys mysql.sys@localhost' ignored in --skip-name-resolve mode.
2016-09-18T15:25:02.312503Z 0 [Warning] 'proxies_priv' entry '@ root@localhost' ignored in --skip-name-resolve mode.
2016-09-18T15:25:02.314146Z 0 [Warning] 'tables_priv' entry 'sys_config mysql.sys@localhost' ignored in --skip-name-resolve mode.
2016-09-18T15:25:02.319165Z 0 [Note] Event Scheduler: Loaded 0 events
2016-09-18T15:25:02.319655Z 0 [Note] /usr/sbin/mysqld: ready for connections.
Version: '5.7.15'  socket: '/var/run/mysqld/mysqld.sock'  port: 3306  MySQL Community Server (GPL)
2016-09-18T15:34:37.281827Z 0 [Note] Giving 0 client threads a chance to die gracefully
2016-09-18T15:34:37.281858Z 0 [Note] Shutting down slave threads
2016-09-18T15:34:37.281865Z 0 [Note] Forcefully disconnecting 0 remaining clients
2016-09-18T15:34:37.281873Z 0 [Note] Event Scheduler: Purging the queue. 0 events
2016-09-18T15:34:37.281913Z 0 [Note] Binlog end
2016-09-18T15:34:37.282411Z 0 [Note] Shutting down plugin 'ngram'
2016-09-18T15:34:37.282422Z 0 [Note] Shutting down plugin 'BLACKHOLE'
2016-09-18T15:34:37.282428Z 0 [Note] Shutting down plugin 'partition'
2016-09-18T15:34:37.282433Z 0 [Note] Shutting down plugin 'ARCHIVE'
2016-09-18T15:34:37.282438Z 0 [Note] Shutting down plugin 'MEMORY'
2016-09-18T15:34:37.282452Z 0 [Note] Shutting down plugin 'INNODB_SYS_VIRTUAL'
2016-09-18T15:34:37.282458Z 0 [Note] Shutting down plugin 'INNODB_SYS_DATAFILES'
2016-09-18T15:34:37.282462Z 0 [Note] Shutting down plugin 'INNODB_SYS_TABLESPACES'
2016-09-18T15:34:37.282466Z 0 [Note] Shutting down plugin 'INNODB_SYS_FOREIGN_COLS'
2016-09-18T15:34:37.282470Z 0 [Note] Shutting down plugin 'INNODB_SYS_FOREIGN'
2016-09-18T15:34:37.282474Z 0 [Note] Shutting down plugin 'INNODB_SYS_FIELDS'
2016-09-18T15:34:37.282478Z 0 [Note] Shutting down plugin 'INNODB_SYS_COLUMNS'
2016-09-18T15:34:37.282482Z 0 [Note] Shutting down plugin 'INNODB_SYS_INDEXES'
2016-09-18T15:34:37.282486Z 0 [Note] Shutting down plugin 'INNODB_SYS_TABLESTATS'
2016-09-18T15:34:37.282490Z 0 [Note] Shutting down plugin 'INNODB_SYS_TABLES'
2016-09-18T15:34:37.282494Z 0 [Note] Shutting down plugin 'INNODB_FT_INDEX_TABLE'
2016-09-18T15:34:37.282497Z 0 [Note] Shutting down plugin 'INNODB_FT_INDEX_CACHE'
2016-09-18T15:34:37.282501Z 0 [Note] Shutting down plugin 'INNODB_FT_CONFIG'
2016-09-18T15:34:37.282505Z 0 [Note] Shutting down plugin 'INNODB_FT_BEING_DELETED'
2016-09-18T15:34:37.282509Z 0 [Note] Shutting down plugin 'INNODB_FT_DELETED'
2016-09-18T15:34:37.282513Z 0 [Note] Shutting down plugin 'INNODB_FT_DEFAULT_STOPWORD'
2016-09-18T15:34:37.282516Z 0 [Note] Shutting down plugin 'INNODB_METRICS'
2016-09-18T15:34:37.282520Z 0 [Note] Shutting down plugin 'INNODB_TEMP_TABLE_INFO'
2016-09-18T15:34:37.282524Z 0 [Note] Shutting down plugin 'INNODB_BUFFER_POOL_STATS'
2016-09-18T15:34:37.282528Z 0 [Note] Shutting down plugin 'INNODB_BUFFER_PAGE_LRU'
2016-09-18T15:34:37.282532Z 0 [Note] Shutting down plugin 'INNODB_BUFFER_PAGE'
2016-09-18T15:34:37.282535Z 0 [Note] Shutting down plugin 'INNODB_CMP_PER_INDEX_RESET'
2016-09-18T15:34:37.282539Z 0 [Note] Shutting down plugin 'INNODB_CMP_PER_INDEX'
2016-09-18T15:34:37.282543Z 0 [Note] Shutting down plugin 'INNODB_CMPMEM_RESET'
2016-09-18T15:34:37.282547Z 0 [Note] Shutting down plugin 'INNODB_CMPMEM'
2016-09-18T15:34:37.282551Z 0 [Note] Shutting down plugin 'INNODB_CMP_RESET'
2016-09-18T15:34:37.282554Z 0 [Note] Shutting down plugin 'INNODB_CMP'
2016-09-18T15:34:37.282558Z 0 [Note] Shutting down plugin 'INNODB_LOCK_WAITS'
2016-09-18T15:34:37.282562Z 0 [Note] Shutting down plugin 'INNODB_LOCKS'
2016-09-18T15:34:37.282566Z 0 [Note] Shutting down plugin 'INNODB_TRX'
2016-09-18T15:34:37.282570Z 0 [Note] Shutting down plugin 'InnoDB'
2016-09-18T15:34:37.282754Z 0 [Note] InnoDB: FTS optimize thread exiting.
2016-09-18T15:34:37.283011Z 0 [Note] InnoDB: Starting shutdown...
2016-09-18T15:34:37.383841Z 0 [Note] InnoDB: Dumping buffer pool(s) to /var/lib/mysql/ib_buffer_pool
2016-09-18T15:34:37.385382Z 0 [Note] InnoDB: Buffer pool(s) dump completed at 160918 15:34:37
2016-09-18T15:34:38.835021Z 0 [Note] InnoDB: Shutdown completed; log sequence number 12134516
2016-09-18T15:34:38.841439Z 0 [Note] InnoDB: Removed temporary tablespace data file: "ibtmp1"
2016-09-18T15:34:38.841491Z 0 [Note] Shutting down plugin 'MyISAM'
2016-09-18T15:34:38.841520Z 0 [Note] Shutting down plugin 'MRG_MYISAM'
2016-09-18T15:34:38.841535Z 0 [Note] Shutting down plugin 'CSV'
2016-09-18T15:34:38.841549Z 0 [Note] Shutting down plugin 'PERFORMANCE_SCHEMA'
2016-09-18T15:34:38.841603Z 0 [Note] Shutting down plugin 'sha256_password'
2016-09-18T15:34:38.841616Z 0 [Note] Shutting down plugin 'mysql_native_password'
2016-09-18T15:34:38.841985Z 0 [Note] Shutting down plugin 'binlog'
2016-09-18T15:34:38.843167Z 0 [Note] /usr/sbin/mysqld: Shutdown complete

2016-09-18T15:34:38.900240Z mysqld_safe mysqld from pid file /var/run/mysqld/mysqld.pid ended
2016-09-18T15:34:39.580246Z mysqld_safe Starting mysqld daemon with databases from /var/lib/mysql
2016-09-18T15:34:39.746826Z 0 [Warning] TIMESTAMP with implicit DEFAULT value is deprecated. Please use --explicit_defaults_for_timestamp server option (see documentation for more details).
2016-09-18T15:34:39.747588Z 0 [Note] /usr/sbin/mysqld (mysqld 5.7.15) starting as process 638 ...
2016-09-18T15:34:39.750514Z 0 [Note] InnoDB: PUNCH HOLE support available
2016-09-18T15:34:39.750542Z 0 [Note] InnoDB: Mutexes and rw_locks use GCC atomic builtins
2016-09-18T15:34:39.750547Z 0 [Note] InnoDB: Uses event mutexes
2016-09-18T15:34:39.750552Z 0 [Note] InnoDB: GCC builtin __atomic_thread_fence() is used for memory barrier
2016-09-18T15:34:39.750556Z 0 [Note] InnoDB: Compressed tables use zlib 1.2.3
2016-09-18T15:34:39.750560Z 0 [Note] InnoDB: Using Linux native AIO
2016-09-18T15:34:39.750748Z 0 [Note] InnoDB: Number of pools: 1
2016-09-18T15:34:39.750827Z 0 [Note] InnoDB: Using CPU crc32 instructions
2016-09-18T15:34:39.752009Z 0 [Note] InnoDB: Initializing buffer pool, total size = 128M, instances = 1, chunk size = 128M
2016-09-18T15:34:39.759687Z 0 [Note] InnoDB: Completed initialization of buffer pool
2016-09-18T15:34:39.761102Z 0 [Note] InnoDB: If the mysqld execution user is authorized, page cleaner thread priority can be changed. See the man page of setpriority().
2016-09-18T15:34:39.772604Z 0 [Note] InnoDB: Highest supported file format is Barracuda.
2016-09-18T15:34:39.840194Z 0 [Note] InnoDB: Creating shared tablespace for temporary tables
2016-09-18T15:34:39.840449Z 0 [Note] InnoDB: Setting file './ibtmp1' size to 12 MB. Physically writing the file full; Please wait ...
2016-09-18T15:34:40.012157Z 0 [Note] InnoDB: File './ibtmp1' size is now 12 MB.
2016-09-18T15:34:40.015417Z 0 [Note] InnoDB: 96 redo rollback segment(s) found. 96 redo rollback segment(s) are active.
2016-09-18T15:34:40.015473Z 0 [Note] InnoDB: 32 non-redo rollback segment(s) are active.
2016-09-18T15:34:40.019397Z 0 [Note] InnoDB: 5.7.15 started; log sequence number 12134516
2016-09-18T15:34:40.021191Z 0 [Note] Plugin 'FEDERATED' is disabled.
2016-09-18T15:34:40.023367Z 0 [Note] InnoDB: Loading buffer pool(s) from /var/lib/mysql/ib_buffer_pool
2016-09-18T15:34:40.027416Z 0 [Note] InnoDB: Buffer pool(s) load completed at 160918 15:34:40
2016-09-18T15:34:40.034123Z 0 [Warning] Failed to set up SSL because of the following SSL library error: SSL context is not usable without certificate and private key
2016-09-18T15:34:40.035740Z 0 [Note] Server hostname (bind-address): '*'; port: 3306
2016-09-18T15:34:40.035882Z 0 [Note] IPv6 is available.
2016-09-18T15:34:40.035920Z 0 [Note]   - '::' resolves to '::';
2016-09-18T15:34:40.035971Z 0 [Note] Server socket created on IP: '::'.
2016-09-18T15:34:40.049537Z 0 [Warning] 'db' entry 'sys mysql.sys@localhost' ignored in --skip-name-resolve mode.
2016-09-18T15:34:40.049607Z 0 [Warning] 'proxies_priv' entry '@ root@localhost' ignored in --skip-name-resolve mode.
2016-09-18T15:34:40.056715Z 0 [Warning] 'tables_priv' entry 'sys_config mysql.sys@localhost' ignored in --skip-name-resolve mode.
2016-09-18T15:34:40.078117Z 0 [Note] Event Scheduler: Loaded 0 events
2016-09-18T15:34:40.079788Z 0 [Note] /usr/sbin/mysqld: ready for connections.
Version: '5.7.15'  socket: '/var/run/mysqld/mysqld.sock'  port: 3306  MySQL Community Server (GPL)
2016-09-18T15:37:29.939928Z 3 [Note] Access denied for user 'root'@'172.18.0.1' (using password: YES)
